{
    "maxSaving": 5682.55,
    "entirePeriodSavingIsMax": false,
    "productId": 6,
    "partnerName": "E.ON",
    "partner": {
        "id": "=== dangerous value for snapshot ===",
        "energoPartnerId": 570,
        "name": "E.ON",
        "seoName": "eon",
        "descriptionMD": "I coby dodavatel plynu společnost E.ON rozlišuje tarify plynu pro stávající zákazníky, tak pro zákazníky nové. Součástí tarifů  “Komplet” je pravidelná  roční kontrola plynového kotle a kontrola a čištění spalinových cest. Tato služba je zahrnuta v obchodní ceně za m3 plynu. Tarify pro odběr plynu od společnosti E.ON je možné uzavřít pouze na dobu určitou, a to na 12, 24 nebo 36 měsíců. Cena za m3 plynu je u většiny tarifů fixována po celou dobu trvání úvazku. Pro všechny tarify jsou na webových stránkách dostupné aktuální ceníky. Pokud chcete získat tu nejvýhodnější cenu za m3 plynu, přečtěte si více o [cenách plynu](https://www.kalkulator.cz/).",
        "logoUrl": "http://localhost:3005/upload/default/5/5/557bd864-6962-4c43-bc8d-812e48432bf5.png",
        "logoSquareUrl": "http://localhost:3005/upload/default/f/a/faf1f2da-b4f4-42c6-ae42-df82c3a257da.png",
        "invoiceHelpYearlyConsumptionMD": "Celkovou spotřebu plynu naleznete v části B, v sekci **Technické údaje o měření** na straně 3.",
        "invoiceHelpYearlyConsumptionImage": null,
        "invoiceHelpInvoicedPaymentMD": "Celkovou fakturovanou platbu za plyn naleznete v části A, v sekci, která shrnuje fakturační období na straně 1. Hledáte údaj **Faktura celkem**.",
        "invoiceHelpInvoicedPaymentImage": null,
        "invoiceHelpCurrentProductMD": "Váš stávající tarif naleznete v části B, v sekci **Výpočet platby** na straně 3.",
        "invoiceHelpCurrentProductImage": null,
        "cooperationMethod": "COOPERATING",
        "termsOfServicePreview": null,
        "companyAddress": "F. A. Gerstnera 2151/6, 370 01 České Budějovice",
        "contactEmail": "info@eon.cz",
        "tollFreePhone": "800 77 33 22",
        "web": "https://www.eon.cz/",
        "latitude": 48.9709936,
        "longitude": 14.4720175,
        "urlVop": "https://www.eon.cz/-a136749---MO85_Qkc/obchodni-podminky-dodavky-elektriny-ucinne-k-1-1-2016-pro-smlouvy-uzavrene-od-25-5-2018-pdf",
        "urlPricelist": "https://www.eon.cz/domacnosti/elektrina-a-plyn/ceniky",
        "longArticleMD": "",
        "ratingCustomerService": 8,
        "ratingProvidedService": 9,
        "ratingInformationAccess": 9,
        "ratingKarma": 9,
        "ratingOnlineSupport": 10,
        "ratingTotal": 45,
        "rating": {
            "id": "=== dangerous value for snapshot ===",
            "total": 45,
            "categories": [
                {
                    "id": "=== dangerous value for snapshot ===",
                    "label": "Zákaznický servis",
                    "value": 8
                },
                {
                    "id": "=== dangerous value for snapshot ===",
                    "label": "Poskytované služby",
                    "value": 9
                },
                {
                    "id": "=== dangerous value for snapshot ===",
                    "label": "Přístup k informacím",
                    "value": 9
                },
                {
                    "id": "=== dangerous value for snapshot ===",
                    "label": "Férovost",
                    "value": 9
                },
                {
                    "id": "=== dangerous value for snapshot ===",
                    "label": "Podpora online",
                    "value": 10
                }
            ]
        },
        "estimateDefaultProductId": 1,
        "isActive": true,
        "title": "title4",
        "metaTitle": "metaTitle4",
        "metaDescription": null,
        "supplierFinished": false,
        "createdAt": "=== dangerous value for snapshot ===",
        "updatedAt": "2022-01-24T00:00:00+01:00",
        "adminLastEdit": null,
        "powerOfAttorney": null,
        "preContractualInformation": null,
        "eonId": null,
        "eonName": null,
        "defaultProductEonId": null,
        "defaultProductEonName": null
    },
    "product": {
        "id": "=== dangerous value for snapshot ===",
        "name": "Ceník Variant PRO 24 Leden 2020",
        "descriptionMD": "",
        "validFrom": "2020-01-01T00:00:00+01:00",
        "validTo": null,
        "guaranteedTariff": true,
        "partnerTransition": true,
        "isActive": true,
        "isActiveForPurchase": true,
        "isActiveForNewCustomers": true,
        "isActiveForCurrentCustomers": true,
        "isActiveForSelectCurrentEstimate": false,
        "isActiveForSelectCurrentExact": false,
        "private": false,
        "lengthOfFixation": 0,
        "lengthOfCommitment": 3,
        "productInfoListBasic": [],
        "productInfoListExtended": [],
        "faqs": [],
        "followingProductId": null,
        "followingProductName": null,
        "followingProductFixedEndOfCommitment": null,
        "followingProductFixedEndOfFixation": null,
        "followingProductLengthOfCommitment": null,
        "followingProductLengthOfFixation": null,
        "shortName": null,
        "gift": null,
        "bonus": null,
        "partner": {
            "id": "=== dangerous value for snapshot ===",
            "energoPartnerId": 570,
            "name": "E.ON",
            "seoName": "eon",
            "descriptionMD": "I coby dodavatel plynu společnost E.ON rozlišuje tarify plynu pro stávající zákazníky, tak pro zákazníky nové. Součástí tarifů  “Komplet” je pravidelná  roční kontrola plynového kotle a kontrola a čištění spalinových cest. Tato služba je zahrnuta v obchodní ceně za m3 plynu. Tarify pro odběr plynu od společnosti E.ON je možné uzavřít pouze na dobu určitou, a to na 12, 24 nebo 36 měsíců. Cena za m3 plynu je u většiny tarifů fixována po celou dobu trvání úvazku. Pro všechny tarify jsou na webových stránkách dostupné aktuální ceníky. Pokud chcete získat tu nejvýhodnější cenu za m3 plynu, přečtěte si více o [cenách plynu](https://www.kalkulator.cz/).",
            "logoUrl": "http://localhost:3005/upload/default/5/5/557bd864-6962-4c43-bc8d-812e48432bf5.png",
            "logoSquareUrl": "http://localhost:3005/upload/default/f/a/faf1f2da-b4f4-42c6-ae42-df82c3a257da.png",
            "invoiceHelpYearlyConsumptionMD": "Celkovou spotřebu plynu naleznete v části B, v sekci **Technické údaje o měření** na straně 3.",
            "invoiceHelpYearlyConsumptionImage": null,
            "invoiceHelpInvoicedPaymentMD": "Celkovou fakturovanou platbu za plyn naleznete v části A, v sekci, která shrnuje fakturační období na straně 1. Hledáte údaj **Faktura celkem**.",
            "invoiceHelpInvoicedPaymentImage": null,
            "invoiceHelpCurrentProductMD": "Váš stávající tarif naleznete v části B, v sekci **Výpočet platby** na straně 3.",
            "invoiceHelpCurrentProductImage": null,
            "cooperationMethod": "COOPERATING",
            "termsOfServicePreview": null,
            "companyAddress": "F. A. Gerstnera 2151/6, 370 01 České Budějovice",
            "contactEmail": "info@eon.cz",
            "tollFreePhone": "800 77 33 22",
            "web": "https://www.eon.cz/",
            "latitude": 48.9709936,
            "longitude": 14.4720175,
            "urlVop": "https://www.eon.cz/-a136749---MO85_Qkc/obchodni-podminky-dodavky-elektriny-ucinne-k-1-1-2016-pro-smlouvy-uzavrene-od-25-5-2018-pdf",
            "urlPricelist": "https://www.eon.cz/domacnosti/elektrina-a-plyn/ceniky",
            "longArticleMD": "",
            "ratingCustomerService": 8,
            "ratingProvidedService": 9,
            "ratingInformationAccess": 9,
            "ratingKarma": 9,
            "ratingOnlineSupport": 10,
            "ratingTotal": 45,
            "rating": {
                "id": "=== dangerous value for snapshot ===",
                "total": 45,
                "categories": [
                    {
                        "id": "=== dangerous value for snapshot ===",
                        "label": "Zákaznický servis",
                        "value": 8
                    },
                    {
                        "id": "=== dangerous value for snapshot ===",
                        "label": "Poskytované služby",
                        "value": 9
                    },
                    {
                        "id": "=== dangerous value for snapshot ===",
                        "label": "Přístup k informacím",
                        "value": 9
                    },
                    {
                        "id": "=== dangerous value for snapshot ===",
                        "label": "Férovost",
                        "value": 9
                    },
                    {
                        "id": "=== dangerous value for snapshot ===",
                        "label": "Podpora online",
                        "value": 10
                    }
                ]
            },
            "estimateDefaultProductId": 1,
            "isActive": true,
            "title": "title4",
            "metaTitle": "metaTitle4",
            "metaDescription": null,
            "supplierFinished": false,
            "createdAt": "=== dangerous value for snapshot ===",
            "updatedAt": "2022-01-24T00:00:00+01:00",
            "adminLastEdit": null,
            "powerOfAttorney": null,
            "preContractualInformation": null,
            "eonId": null,
            "eonName": null,
            "defaultProductEonId": null,
            "defaultProductEonName": null
        },
        "fixedEndOfCommitment": null,
        "fixedEndOfFixation": null,
        "label": null,
        "labelTooltip": null,
        "discountToInvoices": [
            {
                "id": "=== dangerous value for snapshot ===",
                "discountToInvoice": 10
            },
            {
                "id": "=== dangerous value for snapshot ===",
                "discountToInvoice": 100
            },
            {
                "id": "=== dangerous value for snapshot ===",
                "discountToInvoice": 500
            },
            {
                "id": "=== dangerous value for snapshot ===",
                "discountToInvoice": 1500
            },
            {
                "id": "=== dangerous value for snapshot ===",
                "discountToInvoice": 2500
            }
        ],
        "preferredSale": false,
        "availableForSale": true,
        "productCode": null,
        "createdAt": "=== dangerous value for snapshot ===",
        "updatedAt": "2022-01-24T00:00:00+01:00",
        "adminLastEdit": null,
        "contractType": null,
        "startsWithSignature": false,
        "contractPdf": null,
        "marketingCampaignCode": null,
        "eonId": null,
        "eonName": null,
        "productVersion": null
    },
    "productName": "Ceník Variant PRO 24 Leden 2020",
    "resultPrice": 34313.45,
    "priceCurrent": 39996,
    "priceExpected": 39996,
    "priceCalculatedAnnually": 34313.45,
    "priceCalculatedMonthly": 2859.45,
    "priceCalculatedAnnuallyWithoutDiscountToInvoice": 34325.55,
    "priceCalculatedMonthlyWithoutDiscountToInvoice": 2860.46,
    "saving": 5682.55,
    "savingWithoutDiscountToInvoice": 5670.45,
    "savingEntirePeriod": 1429.71,
    "priceExpectedDetail": {
        "priceResult": 39996,
        "priceDistributionMonthly": 253.85,
        "priceDistributionMWh": 333.03,
        "priceDistrinutionMWh": 333.03,
        "priceProductMonthly": 171.82,
        "priceProductMWh": 1044.23,
        "yearlyDistributionPrice": 11408.38,
        "yearlyPartnerPrice": 28513.75
    },
    "priceResultDetail": {
        "priceResult": 34313.45,
        "priceDistributionMonthly": 253.85,
        "priceDistributionMWh": 333.03,
        "priceDistrinutionMWh": 333.03,
        "priceProductMonthly": 171.82,
        "priceProductMWh": 820.38,
        "yearlyDistributionPrice": 11408.38,
        "yearlyPartnerPrice": 22843.29
    },
    "discountToInvoice": 12.1,
    "discountToInvoiceWithoutVat": 10,
    "kalkulatorTip": true
}
